(kicad_pcb (version 20171130) (host pcbnew "(5.1.2)-2")

  (general
    (thickness 1.6)
    (drawings 12)
    (tracks 320)
    (zones 0)
    (modules 4)
    (nets 31)
  )

  (page A4)
  (layers
    (0 F.Cu signal)
    (31 B.Cu signal)
    (32 B.Adhes user)
    (33 F.Adhes user)
    (34 B.Paste user)
    (35 F.Paste user)
    (36 B.SilkS user)
    (37 F.SilkS user)
    (38 B.Mask user)
    (39 F.Mask user)
    (40 Dwgs.User user)
    (41 Cmts.User user)
    (42 Eco1.User user)
    (43 Eco2.User user)
    (44 Edge.Cuts user)
    (45 Margin user)
    (46 B.CrtYd user)
    (47 F.CrtYd user)
    (48 B.Fab user)
    (49 F.Fab user)
  )

  (setup
    (last_trace_width 0.5)
    (user_trace_width 0.5)
    (trace_clearance 0.2)
    (zone_clearance 0.508)
    (zone_45_only no)
    (trace_min 0.2)
    (via_size 0.8)
    (via_drill 0.4)
    (via_min_size 0.4)
    (via_min_drill 0.3)
    (uvia_size 0.3)
    (uvia_drill 0.1)
    (uvias_allowed no)
    (uvia_min_size 0.2)
    (uvia_min_drill 0.1)
    (edge_width 0.05)
    (segment_width 0.2)
    (pcb_text_width 0.3)
    (pcb_text_size 1.5 1.5)
    (mod_edge_width 0.12)
    (mod_text_size 1 1)
    (mod_text_width 0.15)
    (pad_size 1.6 1.6)
    (pad_drill 1)
    (pad_to_mask_clearance 0.051)
    (solder_mask_min_width 0.25)
    (aux_axis_origin 0 0)
    (visible_elements 7FFFFFFF)
    (pcbplotparams
      (layerselection 0x010f0_ffffffff)
      (usegerberextensions true)
      (usegerberattributes false)
      (usegerberadvancedattributes false)
      (creategerberjobfile false)
      (excludeedgelayer true)
      (linewidth 0.100000)
      (plotframeref false)
      (viasonmask false)
      (mode 1)
      (useauxorigin false)
      (hpglpennumber 1)
      (hpglpenspeed 20)
      (hpglpendiameter 15.000000)
      (psnegative false)
      (psa4output false)
      (plotreference true)
      (plotvalue true)
      (plotinvisibletext false)
      (padsonsilk false)
      (subtractmaskfromsilk false)
      (outputformat 1)
      (mirror false)
      (drillshape 0)
      (scaleselection 1)
      (outputdirectory "GERBER/"))
  )

  (net 0 "")
  (net 1 /8)
  (net 2 /10)
  (net 3 /2)
  (net 4 /6)
  (net 5 /12)
  (net 6 /4)
  (net 7 /14)
  (net 8 /24)
  (net 9 /26)
  (net 10 /28)
  (net 11 /22)
  (net 12 /20)
  (net 13 /30)
  (net 14 /16)
  (net 15 /18)
  (net 16 /29)
  (net 17 /27)
  (net 18 /25)
  (net 19 /23)
  (net 20 /21)
  (net 21 /19)
  (net 22 /17)
  (net 23 /15)
  (net 24 /13)
  (net 25 /11)
  (net 26 /9)
  (net 27 /7)
  (net 28 /5)
  (net 29 /3)
  (net 30 /1)

  (net_class Default "This is the default net class."
    (clearance 0.2)
    (trace_width 0.25)
    (via_dia 0.8)
    (via_drill 0.4)
    (uvia_dia 0.3)
    (uvia_drill 0.1)
    (add_net /1)
    (add_net /10)
    (add_net /11)
    (add_net /12)
    (add_net /13)
    (add_net /14)
    (add_net /15)
    (add_net /16)
    (add_net /17)
    (add_net /18)
    (add_net /19)
    (add_net /2)
    (add_net /20)
    (add_net /21)
    (add_net /22)
    (add_net /23)
    (add_net /24)
    (add_net /25)
    (add_net /26)
    (add_net /27)
    (add_net /28)
    (add_net /29)
    (add_net /3)
    (add_net /30)
    (add_net /4)
    (add_net /5)
    (add_net /6)
    (add_net /7)
    (add_net /8)
    (add_net /9)
  )

  (module suf_connector_edge:EDGE-3.96-30 (layer F.Cu) (tedit 5FD5C09C) (tstamp 5FD5B687)
    (at 160 61 270)
    (path /5FD42199)
    (attr virtual)
    (fp_text reference J3 (at -28 1 270) (layer F.SilkS)
      (effects (font (size 1 1) (thickness 0.15)))
    )
    (fp_text value CONN-180 (at 24 -12 270) (layer F.Fab)
      (effects (font (size 1 1) (thickness 0.15)))
    )
    (pad 1 smd roundrect (at -27.72 -6 270) (size 3 10) (layers F.Cu F.Paste F.Mask) (roundrect_rratio 0.333)
      (net 30 /1))
    (pad 3 smd roundrect (at -23.76 -6 270) (size 3 10) (layers F.Cu F.Paste F.Mask) (roundrect_rratio 0.333)
      (net 29 /3))
    (pad 5 smd roundrect (at -19.8 -6 270) (size 3 10) (layers F.Cu F.Paste F.Mask) (roundrect_rratio 0.333)
      (net 28 /5))
    (pad 7 smd roundrect (at -15.84 -6 270) (size 3 10) (layers F.Cu F.Paste F.Mask) (roundrect_rratio 0.333)
      (net 27 /7))
    (pad 9 smd roundrect (at -11.88 -6 270) (size 3 10) (layers F.Cu F.Paste F.Mask) (roundrect_rratio 0.333)
      (net 26 /9))
    (pad 11 smd roundrect (at -7.92 -6 270) (size 3 10) (layers F.Cu F.Paste F.Mask) (roundrect_rratio 0.333)
      (net 25 /11))
    (pad 13 smd roundrect (at -3.96 -6 270) (size 3 10) (layers F.Cu F.Paste F.Mask) (roundrect_rratio 0.333)
      (net 24 /13))
    (pad 15 smd roundrect (at 0 -6 270) (size 3 10) (layers F.Cu F.Paste F.Mask) (roundrect_rratio 0.333)
      (net 23 /15))
    (pad 17 smd roundrect (at 3.96 -6 270) (size 3 10) (layers F.Cu F.Paste F.Mask) (roundrect_rratio 0.333)
      (net 22 /17))
    (pad 19 smd roundrect (at 7.92 -6 270) (size 3 10) (layers F.Cu F.Paste F.Mask) (roundrect_rratio 0.333)
      (net 21 /19))
    (pad 21 smd roundrect (at 11.88 -6 270) (size 3 10) (layers F.Cu F.Paste F.Mask) (roundrect_rratio 0.333)
      (net 20 /21))
    (pad 23 smd roundrect (at 15.84 -6 270) (size 3 10) (layers F.Cu F.Paste F.Mask) (roundrect_rratio 0.333)
      (net 19 /23))
    (pad 25 smd roundrect (at 19.8 -6 270) (size 3 10) (layers F.Cu F.Paste F.Mask) (roundrect_rratio 0.333)
      (net 18 /25))
    (pad 27 smd roundrect (at 23.76 -6 270) (size 3 10) (layers F.Cu F.Paste F.Mask) (roundrect_rratio 0.333)
      (net 17 /27))
    (pad 29 smd roundrect (at 27.72 -6 270) (size 3 10) (layers F.Cu F.Paste F.Mask) (roundrect_rratio 0.333)
      (net 16 /29))
    (pad 18 smd roundrect (at 3.96 -6 270) (size 3 10) (layers B.Cu B.Paste B.Mask) (roundrect_rratio 0.333)
      (net 15 /18))
    (pad 16 smd roundrect (at 0 -6 270) (size 3 10) (layers B.Cu B.Paste B.Mask) (roundrect_rratio 0.333)
      (net 14 /16))
    (pad 30 smd roundrect (at 27.72 -6 270) (size 3 10) (layers B.Cu B.Paste B.Mask) (roundrect_rratio 0.333)
      (net 13 /30))
    (pad 20 smd roundrect (at 7.92 -6 270) (size 3 10) (layers B.Cu B.Paste B.Mask) (roundrect_rratio 0.333)
      (net 12 /20))
    (pad 22 smd roundrect (at 11.88 -6 270) (size 3 10) (layers B.Cu B.Paste B.Mask) (roundrect_rratio 0.333)
      (net 11 /22))
    (pad 28 smd roundrect (at 23.76 -6 270) (size 3 10) (layers B.Cu B.Paste B.Mask) (roundrect_rratio 0.333)
      (net 10 /28))
    (pad 26 smd roundrect (at 19.8 -6 270) (size 3 10) (layers B.Cu B.Paste B.Mask) (roundrect_rratio 0.333)
      (net 9 /26))
    (pad 24 smd roundrect (at 15.84 -6 270) (size 3 10) (layers B.Cu B.Paste B.Mask) (roundrect_rratio 0.333)
      (net 8 /24))
    (pad 14 smd roundrect (at -3.96 -6 270) (size 3 10) (layers B.Cu B.Paste B.Mask) (roundrect_rratio 0.333)
      (net 7 /14))
    (pad 4 smd roundrect (at -23.76 -6 270) (size 3 10) (layers B.Cu B.Paste B.Mask) (roundrect_rratio 0.333)
      (net 6 /4))
    (pad 12 smd roundrect (at -7.92 -6 270) (size 3 10) (layers B.Cu B.Paste B.Mask) (roundrect_rratio 0.333)
      (net 5 /12))
    (pad 6 smd roundrect (at -19.8 -6 270) (size 3 10) (layers B.Cu B.Paste B.Mask) (roundrect_rratio 0.333)
      (net 4 /6))
    (pad 2 smd roundrect (at -27.72 -6 270) (size 3 10) (layers B.Cu B.Paste B.Mask) (roundrect_rratio 0.333)
      (net 3 /2))
    (pad 10 smd roundrect (at -11.88 -6 270) (size 3 10) (layers B.Cu B.Paste B.Mask) (roundrect_rratio 0.333)
      (net 2 /10))
    (pad 8 smd roundrect (at -15.84 -6 270) (size 3 10) (layers B.Cu B.Paste B.Mask) (roundrect_rratio 0.333)
      (net 1 /8))
  )

  (module suf_connector_edge:EDGE-3.96-30 (layer F.Cu) (tedit 5FD30522) (tstamp 5FD5B630)
    (at 20 61 270)
    (path /5FD30FBA)
    (attr virtual)
    (fp_text reference J1 (at -28 -13 90) (layer F.SilkS)
      (effects (font (size 1 1) (thickness 0.15)))
    )
    (fp_text value EDGE (at 24 -12 90) (layer F.Fab)
      (effects (font (size 1 1) (thickness 0.15)))
    )
    (fp_line (start -31 0) (end -31 -12) (layer F.SilkS) (width 0.12))
    (fp_line (start 31 0) (end -31 0) (layer F.SilkS) (width 0.12))
    (fp_line (start 31 -12) (end 31 0) (layer F.SilkS) (width 0.12))
    (pad 8 smd roundrect (at -15.84 -6 270) (size 3 10) (layers B.Cu B.Paste B.Mask) (roundrect_rratio 0.333)
      (net 1 /8))
    (pad 10 smd roundrect (at -11.88 -6 270) (size 3 10) (layers B.Cu B.Paste B.Mask) (roundrect_rratio 0.333)
      (net 2 /10))
    (pad 2 smd roundrect (at -27.72 -6 270) (size 3 10) (layers B.Cu B.Paste B.Mask) (roundrect_rratio 0.333)
      (net 3 /2))
    (pad 6 smd roundrect (at -19.8 -6 270) (size 3 10) (layers B.Cu B.Paste B.Mask) (roundrect_rratio 0.333)
      (net 4 /6))
    (pad 12 smd roundrect (at -7.92 -6 270) (size 3 10) (layers B.Cu B.Paste B.Mask) (roundrect_rratio 0.333)
      (net 5 /12))
    (pad 4 smd roundrect (at -23.76 -6 270) (size 3 10) (layers B.Cu B.Paste B.Mask) (roundrect_rratio 0.333)
      (net 6 /4))
    (pad 14 smd roundrect (at -3.96 -6 270) (size 3 10) (layers B.Cu B.Paste B.Mask) (roundrect_rratio 0.333)
      (net 7 /14))
    (pad 24 smd roundrect (at 15.84 -6 270) (size 3 10) (layers B.Cu B.Paste B.Mask) (roundrect_rratio 0.333)
      (net 8 /24))
    (pad 26 smd roundrect (at 19.8 -6 270) (size 3 10) (layers B.Cu B.Paste B.Mask) (roundrect_rratio 0.333)
      (net 9 /26))
    (pad 28 smd roundrect (at 23.76 -6 270) (size 3 10) (layers B.Cu B.Paste B.Mask) (roundrect_rratio 0.333)
      (net 10 /28))
    (pad 22 smd roundrect (at 11.88 -6 270) (size 3 10) (layers B.Cu B.Paste B.Mask) (roundrect_rratio 0.333)
      (net 11 /22))
    (pad 20 smd roundrect (at 7.92 -6 270) (size 3 10) (layers B.Cu B.Paste B.Mask) (roundrect_rratio 0.333)
      (net 12 /20))
    (pad 30 smd roundrect (at 27.72 -6 270) (size 3 10) (layers B.Cu B.Paste B.Mask) (roundrect_rratio 0.333)
      (net 13 /30))
    (pad 16 smd roundrect (at 0 -6 270) (size 3 10) (layers B.Cu B.Paste B.Mask) (roundrect_rratio 0.333)
      (net 14 /16))
    (pad 18 smd roundrect (at 3.96 -6 270) (size 3 10) (layers B.Cu B.Paste B.Mask) (roundrect_rratio 0.333)
      (net 15 /18))
    (pad 29 smd roundrect (at 27.72 -6 270) (size 3 10) (layers F.Cu F.Paste F.Mask) (roundrect_rratio 0.333)
      (net 16 /29))
    (pad 27 smd roundrect (at 23.76 -6 270) (size 3 10) (layers F.Cu F.Paste F.Mask) (roundrect_rratio 0.333)
      (net 17 /27))
    (pad 25 smd roundrect (at 19.8 -6 270) (size 3 10) (layers F.Cu F.Paste F.Mask) (roundrect_rratio 0.333)
      (net 18 /25))
    (pad 23 smd roundrect (at 15.84 -6 270) (size 3 10) (layers F.Cu F.Paste F.Mask) (roundrect_rratio 0.333)
      (net 19 /23))
    (pad 21 smd roundrect (at 11.88 -6 270) (size 3 10) (layers F.Cu F.Paste F.Mask) (roundrect_rratio 0.333)
      (net 20 /21))
    (pad 19 smd roundrect (at 7.92 -6 270) (size 3 10) (layers F.Cu F.Paste F.Mask) (roundrect_rratio 0.333)
      (net 21 /19))
    (pad 17 smd roundrect (at 3.96 -6 270) (size 3 10) (layers F.Cu F.Paste F.Mask) (roundrect_rratio 0.333)
      (net 22 /17))
    (pad 15 smd roundrect (at 0 -6 270) (size 3 10) (layers F.Cu F.Paste F.Mask) (roundrect_rratio 0.333)
      (net 23 /15))
    (pad 13 smd roundrect (at -3.96 -6 270) (size 3 10) (layers F.Cu F.Paste F.Mask) (roundrect_rratio 0.333)
      (net 24 /13))
    (pad 11 smd roundrect (at -7.92 -6 270) (size 3 10) (layers F.Cu F.Paste F.Mask) (roundrect_rratio 0.333)
      (net 25 /11))
    (pad 9 smd roundrect (at -11.88 -6 270) (size 3 10) (layers F.Cu F.Paste F.Mask) (roundrect_rratio 0.333)
      (net 26 /9))
    (pad 7 smd roundrect (at -15.84 -6 270) (size 3 10) (layers F.Cu F.Paste F.Mask) (roundrect_rratio 0.333)
      (net 27 /7))
    (pad 5 smd roundrect (at -19.8 -6 270) (size 3 10) (layers F.Cu F.Paste F.Mask) (roundrect_rratio 0.333)
      (net 28 /5))
    (pad 3 smd roundrect (at -23.76 -6 270) (size 3 10) (layers F.Cu F.Paste F.Mask) (roundrect_rratio 0.333)
      (net 29 /3))
    (pad 1 smd roundrect (at -27.72 -6 270) (size 3 10) (layers F.Cu F.Paste F.Mask) (roundrect_rratio 0.333)
      (net 30 /1))
  )

  (module Pin_Headers:Pin_Header_Straight_2x15_Pitch2.54mm (layer F.Cu) (tedit 5FD5B808) (tstamp 5FD5B654)
    (at 152 43.18)
    (descr "Through hole straight pin header, 2x15, 2.54mm pitch, double rows")
    (tags "Through hole pin header THT 2x15 2.54mm double row")
    (path /5FD3CA46)
    (fp_text reference J2 (at -3 -1.18 90) (layer F.SilkS)
      (effects (font (size 1 1) (thickness 0.15)))
    )
    (fp_text value MEASURE (at 1.27 37.89) (layer F.Fab)
      (effects (font (size 1 1) (thickness 0.15)))
    )
    (fp_text user %R (at 1.27 17.78 90) (layer F.Fab)
      (effects (font (size 1 1) (thickness 0.15)))
    )
    (fp_line (start 4.35 -1.8) (end -1.8 -1.8) (layer F.CrtYd) (width 0.05))
    (fp_line (start 4.35 37.35) (end 4.35 -1.8) (layer F.CrtYd) (width 0.05))
    (fp_line (start -1.8 37.35) (end 4.35 37.35) (layer F.CrtYd) (width 0.05))
    (fp_line (start -1.8 -1.8) (end -1.8 37.35) (layer F.CrtYd) (width 0.05))
    (fp_line (start -1.33 -1.33) (end 0 -1.33) (layer F.SilkS) (width 0.12))
    (fp_line (start -1.33 0) (end -1.33 -1.33) (layer F.SilkS) (width 0.12))
    (fp_line (start 1.27 -1.33) (end 3.87 -1.33) (layer F.SilkS) (width 0.12))
    (fp_line (start 1.27 1.27) (end 1.27 -1.33) (layer F.SilkS) (width 0.12))
    (fp_line (start -1.33 1.27) (end 1.27 1.27) (layer F.SilkS) (width 0.12))
    (fp_line (start 3.87 -1.33) (end 3.87 36.89) (layer F.SilkS) (width 0.12))
    (fp_line (start -1.33 1.27) (end -1.33 36.89) (layer F.SilkS) (width 0.12))
    (fp_line (start -1.33 36.89) (end 3.87 36.89) (layer F.SilkS) (width 0.12))
    (fp_line (start -1.27 0) (end 0 -1.27) (layer F.Fab) (width 0.1))
    (fp_line (start -1.27 36.83) (end -1.27 0) (layer F.Fab) (width 0.1))
    (fp_line (start 3.81 36.83) (end -1.27 36.83) (layer F.Fab) (width 0.1))
    (fp_line (start 3.81 -1.27) (end 3.81 36.83) (layer F.Fab) (width 0.1))
    (fp_line (start 0 -1.27) (end 3.81 -1.27) (layer F.Fab) (width 0.1))
    (pad 30 thru_hole circle (at 2.54 35.56) (size 1.6 1.6) (drill 1) (layers *.Cu *.Mask)
      (net 13 /30))
    (pad 29 thru_hole circle (at 0 35.56) (size 1.6 1.6) (drill 1) (layers *.Cu *.Mask)
      (net 16 /29))
    (pad 28 thru_hole circle (at 2.54 33.02) (size 1.6 1.6) (drill 1) (layers *.Cu *.Mask)
      (net 10 /28))
    (pad 27 thru_hole circle (at 0 33.02) (size 1.6 1.6) (drill 1) (layers *.Cu *.Mask)
      (net 17 /27))
    (pad 26 thru_hole circle (at 2.54 30.48) (size 1.6 1.6) (drill 1) (layers *.Cu *.Mask)
      (net 9 /26))
    (pad 25 thru_hole circle (at 0 30.48) (size 1.6 1.6) (drill 1) (layers *.Cu *.Mask)
      (net 18 /25))
    (pad 24 thru_hole circle (at 2.54 27.94) (size 1.6 1.6) (drill 1) (layers *.Cu *.Mask)
      (net 8 /24))
    (pad 23 thru_hole circle (at 0 27.94) (size 1.6 1.6) (drill 1) (layers *.Cu *.Mask)
      (net 19 /23))
    (pad 22 thru_hole circle (at 2.54 25.4) (size 1.6 1.6) (drill 1) (layers *.Cu *.Mask)
      (net 11 /22))
    (pad 21 thru_hole circle (at 0 25.4) (size 1.6 1.6) (drill 1) (layers *.Cu *.Mask)
      (net 20 /21))
    (pad 20 thru_hole circle (at 2.54 22.86) (size 1.6 1.6) (drill 1) (layers *.Cu *.Mask)
      (net 12 /20))
    (pad 19 thru_hole circle (at 0 22.86) (size 1.6 1.6) (drill 1) (layers *.Cu *.Mask)
      (net 21 /19))
    (pad 18 thru_hole circle (at 2.54 20.32) (size 1.6 1.6) (drill 1) (layers *.Cu *.Mask)
      (net 15 /18))
    (pad 17 thru_hole circle (at 0 20.32) (size 1.6 1.6) (drill 1) (layers *.Cu *.Mask)
      (net 22 /17))
    (pad 16 thru_hole circle (at 2.54 17.78) (size 1.6 1.6) (drill 1) (layers *.Cu *.Mask)
      (net 14 /16))
    (pad 15 thru_hole circle (at 0 17.78) (size 1.6 1.6) (drill 1) (layers *.Cu *.Mask)
      (net 23 /15))
    (pad 14 thru_hole circle (at 2.54 15.24) (size 1.6 1.6) (drill 1) (layers *.Cu *.Mask)
      (net 7 /14))
    (pad 13 thru_hole circle (at 0 15.24) (size 1.6 1.6) (drill 1) (layers *.Cu *.Mask)
      (net 24 /13))
    (pad 12 thru_hole circle (at 2.54 12.7) (size 1.6 1.6) (drill 1) (layers *.Cu *.Mask)
      (net 5 /12))
    (pad 11 thru_hole circle (at 0 12.7) (size 1.6 1.6) (drill 1) (layers *.Cu *.Mask)
      (net 25 /11))
    (pad 10 thru_hole circle (at 2.54 10.16) (size 1.6 1.6) (drill 1) (layers *.Cu *.Mask)
      (net 2 /10))
    (pad 9 thru_hole circle (at 0 10.16) (size 1.6 1.6) (drill 1) (layers *.Cu *.Mask)
      (net 26 /9))
    (pad 8 thru_hole circle (at 2.54 7.62) (size 1.6 1.6) (drill 1) (layers *.Cu *.Mask)
      (net 1 /8))
    (pad 7 thru_hole circle (at 0 7.62) (size 1.6 1.6) (drill 1) (layers *.Cu *.Mask)
      (net 27 /7))
    (pad 6 thru_hole circle (at 2.54 5.08) (size 1.6 1.6) (drill 1) (layers *.Cu *.Mask)
      (net 4 /6))
    (pad 5 thru_hole circle (at 0 5.08) (size 1.6 1.6) (drill 1) (layers *.Cu *.Mask)
      (net 28 /5))
    (pad 4 thru_hole circle (at 2.54 2.54) (size 1.6 1.6) (drill 1) (layers *.Cu *.Mask)
      (net 6 /4))
    (pad 3 thru_hole circle (at 0 2.54) (size 1.6 1.6) (drill 1) (layers *.Cu *.Mask)
      (net 29 /3))
    (pad 2 thru_hole circle (at 2.54 0) (size 1.6 1.6) (drill 1) (layers *.Cu *.Mask)
      (net 3 /2))
    (pad 1 thru_hole circle (at 0 0) (size 1.6 1.6) (drill 1) (layers *.Cu *.Mask)
      (net 30 /1))
    (model ${KISYS3DMOD}/Pin_Headers.3dshapes/Pin_Header_Straight_2x15_Pitch2.54mm.wrl
      (at (xyz 0 0 0))
      (scale (xyz 1 1 1))
      (rotate (xyz 0 0 0))
    )
  )

  (module suf_connector_edge:CONN-3.96-30 (layer F.Cu) (tedit 5FD30F3A) (tstamp 5FD5B6AB)
    (at 179 61 270)
    (path /5FD421CF)
    (fp_text reference J4 (at -29 6 270) (layer F.SilkS)
      (effects (font (size 1 1) (thickness 0.15)))
    )
    (fp_text value CONN-90 (at -35 6 90) (layer F.Fab)
      (effects (font (size 1 1) (thickness 0.15)))
    )
    (fp_line (start -41.25 5) (end 41.25 5) (layer F.SilkS) (width 0.12))
    (fp_line (start 41.25 5) (end 41.25 -5) (layer F.SilkS) (width 0.12))
    (fp_line (start 41.25 -5) (end -41.25 -5) (layer F.SilkS) (width 0.12))
    (fp_line (start -41.25 -5) (end -41.25 5) (layer F.SilkS) (width 0.12))
    (pad 2 thru_hole circle (at -27.72 -1.98 270) (size 2.5 2.5) (drill 1.2) (layers *.Cu *.Mask)
      (net 3 /2))
    (pad 1 thru_hole circle (at -27.72 1.98 270) (size 2.5 2.5) (drill 1.2) (layers *.Cu *.Mask)
      (net 30 /1))
    (pad 4 thru_hole circle (at -23.76 -1.98 270) (size 2.5 2.5) (drill 1.2) (layers *.Cu *.Mask)
      (net 6 /4))
    (pad 3 thru_hole circle (at -23.76 1.98 270) (size 2.5 2.5) (drill 1.2) (layers *.Cu *.Mask)
      (net 29 /3))
    (pad 6 thru_hole circle (at -19.8 -1.98 270) (size 2.5 2.5) (drill 1.2) (layers *.Cu *.Mask)
      (net 4 /6))
    (pad 5 thru_hole circle (at -19.8 1.98 270) (size 2.5 2.5) (drill 1.2) (layers *.Cu *.Mask)
      (net 28 /5))
    (pad 8 thru_hole circle (at -15.84 -1.98 270) (size 2.5 2.5) (drill 1.2) (layers *.Cu *.Mask)
      (net 1 /8))
    (pad 7 thru_hole circle (at -15.84 1.98 270) (size 2.5 2.5) (drill 1.2) (layers *.Cu *.Mask)
      (net 27 /7))
    (pad 10 thru_hole circle (at -11.88 -1.98 270) (size 2.5 2.5) (drill 1.2) (layers *.Cu *.Mask)
      (net 2 /10))
    (pad 9 thru_hole circle (at -11.88 1.98 270) (size 2.5 2.5) (drill 1.2) (layers *.Cu *.Mask)
      (net 26 /9))
    (pad 12 thru_hole circle (at -7.92 -1.98 270) (size 2.5 2.5) (drill 1.2) (layers *.Cu *.Mask)
      (net 5 /12))
    (pad 11 thru_hole circle (at -7.92 1.98 270) (size 2.5 2.5) (drill 1.2) (layers *.Cu *.Mask)
      (net 25 /11))
    (pad 14 thru_hole circle (at -3.96 -1.98 270) (size 2.5 2.5) (drill 1.2) (layers *.Cu *.Mask)
      (net 7 /14))
    (pad 13 thru_hole circle (at -3.96 1.98 270) (size 2.5 2.5) (drill 1.2) (layers *.Cu *.Mask)
      (net 24 /13))
    (pad 16 thru_hole circle (at 0 -1.98 270) (size 2.5 2.5) (drill 1.2) (layers *.Cu *.Mask)
      (net 14 /16))
    (pad 15 thru_hole circle (at 0 1.98 270) (size 2.5 2.5) (drill 1.2) (layers *.Cu *.Mask)
      (net 23 /15))
    (pad 18 thru_hole circle (at 3.96 -1.98 270) (size 2.5 2.5) (drill 1.2) (layers *.Cu *.Mask)
      (net 15 /18))
    (pad 17 thru_hole circle (at 3.96 1.98 270) (size 2.5 2.5) (drill 1.2) (layers *.Cu *.Mask)
      (net 22 /17))
    (pad 20 thru_hole circle (at 7.92 -1.98 270) (size 2.5 2.5) (drill 1.2) (layers *.Cu *.Mask)
      (net 12 /20))
    (pad 19 thru_hole circle (at 7.92 1.98 270) (size 2.5 2.5) (drill 1.2) (layers *.Cu *.Mask)
      (net 21 /19))
    (pad 22 thru_hole circle (at 11.88 -1.98 270) (size 2.5 2.5) (drill 1.2) (layers *.Cu *.Mask)
      (net 11 /22))
    (pad 21 thru_hole circle (at 11.88 1.98 270) (size 2.5 2.5) (drill 1.2) (layers *.Cu *.Mask)
      (net 20 /21))
    (pad 24 thru_hole circle (at 15.84 -1.98 270) (size 2.5 2.5) (drill 1.2) (layers *.Cu *.Mask)
      (net 8 /24))
    (pad 23 thru_hole circle (at 15.84 1.98 270) (size 2.5 2.5) (drill 1.2) (layers *.Cu *.Mask)
      (net 19 /23))
    (pad 26 thru_hole circle (at 19.8 -1.98 270) (size 2.5 2.5) (drill 1.2) (layers *.Cu *.Mask)
      (net 9 /26))
    (pad 25 thru_hole circle (at 19.8 1.98 270) (size 2.5 2.5) (drill 1.2) (layers *.Cu *.Mask)
      (net 18 /25))
    (pad 28 thru_hole circle (at 23.76 -1.98 270) (size 2.5 2.5) (drill 1.2) (layers *.Cu *.Mask)
      (net 10 /28))
    (pad 27 thru_hole circle (at 23.76 1.98 270) (size 2.5 2.5) (drill 1.2) (layers *.Cu *.Mask)
      (net 17 /27))
    (pad 30 thru_hole circle (at 27.72 -1.98 270) (size 2.5 2.5) (drill 1.2) (layers *.Cu *.Mask)
      (net 13 /30))
    (pad 29 thru_hole circle (at 27.72 1.98 270) (size 2.5 2.5) (drill 1.2) (layers *.Cu *.Mask)
      (net 16 /29))
    (pad "" np_thru_hole circle (at -37.3 0 270) (size 3.5 3.5) (drill 3.5) (layers *.Cu *.Mask))
    (pad "" np_thru_hole circle (at 37.3 0 270) (size 3.5 3.5) (drill 3.5) (layers *.Cu *.Mask))
  )

  (gr_line (start 172 30) (end 172 92) (layer F.SilkS) (width 0.12))
  (gr_text "HP 08901-60085 - 30 contact extender card\nClone v1.0 - created and enhanced by SUF" (at 93.345 38.1) (layer F.SilkS)
    (effects (font (size 1.5 1.5) (thickness 0.3)))
  )
  (gr_line (start 20 91) (end 20 31) (layer Edge.Cuts) (width 0.05) (tstamp 5FD45D1B))
  (gr_line (start 21 92) (end 20 91) (layer Edge.Cuts) (width 0.05))
  (gr_line (start 173 92) (end 21 92) (layer Edge.Cuts) (width 0.05))
  (gr_line (start 173 102) (end 173 92) (layer Edge.Cuts) (width 0.05))
  (gr_line (start 184 102) (end 173 102) (layer Edge.Cuts) (width 0.05))
  (gr_line (start 184 20) (end 184 102) (layer Edge.Cuts) (width 0.05))
  (gr_line (start 173 20) (end 184 20) (layer Edge.Cuts) (width 0.05))
  (gr_line (start 173 30) (end 173 20) (layer Edge.Cuts) (width 0.05))
  (gr_line (start 21 30) (end 173 30) (layer Edge.Cuts) (width 0.05))
  (gr_line (start 20 31) (end 21 30) (layer Edge.Cuts) (width 0.05))

  (segment (start 160.18 45.16) (end 166 45.16) (width 0.5) (layer B.Cu) (net 1))
  (segment (start 154.54 50.8) (end 160.18 45.16) (width 0.5) (layer B.Cu) (net 1))
  (segment (start 179.730001 46.409999) (end 180.98 45.16) (width 0.5) (layer B.Cu) (net 1))
  (segment (start 179.023 47.117) (end 179.730001 46.409999) (width 0.5) (layer B.Cu) (net 1))
  (segment (start 175.895 47.117) (end 179.023 47.117) (width 0.5) (layer B.Cu) (net 1))
  (segment (start 173.99 45.212) (end 175.895 47.117) (width 0.5) (layer B.Cu) (net 1))
  (segment (start 166 45.16) (end 166.052 45.212) (width 0.5) (layer B.Cu) (net 1))
  (segment (start 166.052 45.212) (end 173.99 45.212) (width 0.5) (layer B.Cu) (net 1))
  (segment (start 153.250001 52.089999) (end 39.389999 52.089999) (width 0.5) (layer B.Cu) (net 1))
  (segment (start 154.54 50.8) (end 153.250001 52.089999) (width 0.5) (layer B.Cu) (net 1))
  (segment (start 32.46 45.16) (end 26 45.16) (width 0.5) (layer B.Cu) (net 1))
  (segment (start 39.389999 52.089999) (end 32.46 45.16) (width 0.5) (layer B.Cu) (net 1))
  (segment (start 158.76 49.12) (end 166 49.12) (width 0.5) (layer B.Cu) (net 2))
  (segment (start 154.54 53.34) (end 158.76 49.12) (width 0.5) (layer B.Cu) (net 2))
  (segment (start 179.730001 50.369999) (end 180.98 49.12) (width 0.5) (layer B.Cu) (net 2))
  (segment (start 179.046 51.054) (end 179.730001 50.369999) (width 0.5) (layer B.Cu) (net 2))
  (segment (start 175.895 51.054) (end 179.046 51.054) (width 0.5) (layer B.Cu) (net 2))
  (segment (start 173.99 49.149) (end 175.895 51.054) (width 0.5) (layer B.Cu) (net 2))
  (segment (start 166 49.12) (end 166.029 49.149) (width 0.5) (layer B.Cu) (net 2))
  (segment (start 166.029 49.149) (end 173.99 49.149) (width 0.5) (layer B.Cu) (net 2))
  (segment (start 32.356 49.12) (end 26 49.12) (width 0.5) (layer B.Cu) (net 2))
  (segment (start 37.865999 54.629999) (end 32.356 49.12) (width 0.5) (layer B.Cu) (net 2))
  (segment (start 154.54 53.34) (end 153.250001 54.629999) (width 0.5) (layer B.Cu) (net 2))
  (segment (start 153.250001 54.629999) (end 37.865999 54.629999) (width 0.5) (layer B.Cu) (net 2))
  (segment (start 160.9 33.28) (end 166 33.28) (width 0.5) (layer B.Cu) (net 3))
  (segment (start 155.339999 38.840001) (end 160.9 33.28) (width 0.5) (layer B.Cu) (net 3))
  (segment (start 155.339999 42.380001) (end 155.339999 38.840001) (width 0.5) (layer B.Cu) (net 3))
  (segment (start 154.54 43.18) (end 155.339999 42.380001) (width 0.5) (layer B.Cu) (net 3))
  (segment (start 179.730001 34.529999) (end 180.98 33.28) (width 0.5) (layer B.Cu) (net 3))
  (segment (start 178.954 35.306) (end 179.730001 34.529999) (width 0.5) (layer B.Cu) (net 3))
  (segment (start 176.022 35.306) (end 178.954 35.306) (width 0.5) (layer B.Cu) (net 3))
  (segment (start 173.99 33.274) (end 176.022 35.306) (width 0.5) (layer B.Cu) (net 3))
  (segment (start 166 33.28) (end 166.006 33.274) (width 0.5) (layer B.Cu) (net 3))
  (segment (start 166.006 33.274) (end 173.99 33.274) (width 0.5) (layer B.Cu) (net 3))
  (segment (start 32.264 33.28) (end 26 33.28) (width 0.5) (layer B.Cu) (net 3))
  (segment (start 43.414001 44.430001) (end 32.264 33.28) (width 0.5) (layer B.Cu) (net 3))
  (segment (start 154.54 43.18) (end 153.289999 44.430001) (width 0.5) (layer B.Cu) (net 3))
  (segment (start 153.289999 44.430001) (end 43.414001 44.430001) (width 0.5) (layer B.Cu) (net 3))
  (segment (start 165.925 41.275) (end 166 41.2) (width 0.5) (layer B.Cu) (net 4))
  (segment (start 154.54 48.26) (end 161.525 41.275) (width 0.5) (layer B.Cu) (net 4))
  (segment (start 161.525 41.275) (end 165.925 41.275) (width 0.5) (layer B.Cu) (net 4))
  (segment (start 179.730001 42.449999) (end 180.98 41.2) (width 0.5) (layer B.Cu) (net 4))
  (segment (start 179 43.18) (end 179.730001 42.449999) (width 0.5) (layer B.Cu) (net 4))
  (segment (start 176.022 43.18) (end 179 43.18) (width 0.5) (layer B.Cu) (net 4))
  (segment (start 166 41.2) (end 174.042 41.2) (width 0.5) (layer B.Cu) (net 4))
  (segment (start 174.042 41.2) (end 176.022 43.18) (width 0.5) (layer B.Cu) (net 4))
  (segment (start 32.2465 41.2) (end 26 41.2) (width 0.5) (layer B.Cu) (net 4))
  (segment (start 40.556501 49.510001) (end 32.2465 41.2) (width 0.5) (layer B.Cu) (net 4))
  (segment (start 154.54 48.26) (end 153.289999 49.510001) (width 0.5) (layer B.Cu) (net 4))
  (segment (start 153.289999 49.510001) (end 40.556501 49.510001) (width 0.5) (layer B.Cu) (net 4))
  (segment (start 160.9 53.08) (end 166 53.08) (width 0.5) (layer B.Cu) (net 5))
  (segment (start 158.47137 53.08) (end 160.9 53.08) (width 0.5) (layer B.Cu) (net 5))
  (segment (start 155.67137 55.88) (end 158.47137 53.08) (width 0.5) (layer B.Cu) (net 5))
  (segment (start 154.54 55.88) (end 155.67137 55.88) (width 0.5) (layer B.Cu) (net 5))
  (segment (start 179.730001 54.329999) (end 180.98 53.08) (width 0.5) (layer B.Cu) (net 5))
  (segment (start 179.069 54.991) (end 179.730001 54.329999) (width 0.5) (layer B.Cu) (net 5))
  (segment (start 175.895 54.991) (end 179.069 54.991) (width 0.5) (layer B.Cu) (net 5))
  (segment (start 166 53.08) (end 173.984 53.08) (width 0.5) (layer B.Cu) (net 5))
  (segment (start 173.984 53.08) (end 175.895 54.991) (width 0.5) (layer B.Cu) (net 5))
  (segment (start 32.379 53.08) (end 26 53.08) (width 0.5) (layer B.Cu) (net 5))
  (segment (start 36.449 57.15) (end 32.379 53.08) (width 0.5) (layer B.Cu) (net 5))
  (segment (start 152.580002 57.15) (end 36.449 57.15) (width 0.5) (layer B.Cu) (net 5))
  (segment (start 154.54 55.88) (end 153.850002 55.88) (width 0.5) (layer B.Cu) (net 5))
  (segment (start 153.850002 55.88) (end 152.580002 57.15) (width 0.5) (layer B.Cu) (net 5))
  (segment (start 163.02 37.24) (end 166 37.24) (width 0.5) (layer B.Cu) (net 6))
  (segment (start 154.54 45.72) (end 163.02 37.24) (width 0.5) (layer B.Cu) (net 6))
  (segment (start 179.730001 38.489999) (end 180.98 37.24) (width 0.5) (layer B.Cu) (net 6))
  (segment (start 178.977 39.243) (end 179.730001 38.489999) (width 0.5) (layer B.Cu) (net 6))
  (segment (start 176.022 39.243) (end 178.977 39.243) (width 0.5) (layer B.Cu) (net 6))
  (segment (start 166 37.24) (end 174.019 37.24) (width 0.5) (layer B.Cu) (net 6))
  (segment (start 174.019 37.24) (end 176.022 39.243) (width 0.5) (layer B.Cu) (net 6))
  (segment (start 153.250001 47.009999) (end 41.929999 47.009999) (width 0.5) (layer B.Cu) (net 6))
  (segment (start 154.54 45.72) (end 153.250001 47.009999) (width 0.5) (layer B.Cu) (net 6))
  (segment (start 32.16 37.24) (end 26 37.24) (width 0.5) (layer B.Cu) (net 6))
  (segment (start 41.929999 47.009999) (end 32.16 37.24) (width 0.5) (layer B.Cu) (net 6))
  (segment (start 155.92 57.04) (end 166 57.04) (width 0.5) (layer B.Cu) (net 7))
  (segment (start 154.54 58.42) (end 155.92 57.04) (width 0.5) (layer B.Cu) (net 7))
  (segment (start 179.730001 58.289999) (end 180.98 57.04) (width 0.5) (layer B.Cu) (net 7))
  (segment (start 178.965 59.055) (end 179.730001 58.289999) (width 0.5) (layer B.Cu) (net 7))
  (segment (start 176.022 59.055) (end 178.965 59.055) (width 0.5) (layer B.Cu) (net 7))
  (segment (start 173.99 57.023) (end 176.022 59.055) (width 0.5) (layer B.Cu) (net 7))
  (segment (start 166 57.04) (end 166.017 57.023) (width 0.5) (layer B.Cu) (net 7))
  (segment (start 166.017 57.023) (end 173.99 57.023) (width 0.5) (layer B.Cu) (net 7))
  (segment (start 32.402 57.04) (end 26 57.04) (width 0.5) (layer B.Cu) (net 7))
  (segment (start 35.032001 59.670001) (end 32.402 57.04) (width 0.5) (layer B.Cu) (net 7))
  (segment (start 154.54 58.42) (end 153.289999 59.670001) (width 0.5) (layer B.Cu) (net 7))
  (segment (start 153.289999 59.670001) (end 35.032001 59.670001) (width 0.5) (layer B.Cu) (net 7))
  (segment (start 160.26 76.84) (end 166 76.84) (width 0.5) (layer B.Cu) (net 8))
  (segment (start 154.54 71.12) (end 160.26 76.84) (width 0.5) (layer B.Cu) (net 8))
  (segment (start 179.730001 78.089999) (end 180.98 76.84) (width 0.5) (layer B.Cu) (net 8))
  (segment (start 179.08 78.74) (end 179.730001 78.089999) (width 0.5) (layer B.Cu) (net 8))
  (segment (start 175.895 78.74) (end 179.08 78.74) (width 0.5) (layer B.Cu) (net 8))
  (segment (start 166 76.84) (end 173.995 76.84) (width 0.5) (layer B.Cu) (net 8))
  (segment (start 173.995 76.84) (end 175.895 78.74) (width 0.5) (layer B.Cu) (net 8))
  (segment (start 32.507 76.84) (end 26 76.84) (width 0.5) (layer B.Cu) (net 8))
  (segment (start 36.957 72.39) (end 32.507 76.84) (width 0.5) (layer B.Cu) (net 8))
  (segment (start 152.580002 72.39) (end 36.957 72.39) (width 0.5) (layer B.Cu) (net 8))
  (segment (start 154.54 71.12) (end 153.850002 71.12) (width 0.5) (layer B.Cu) (net 8))
  (segment (start 153.850002 71.12) (end 152.580002 72.39) (width 0.5) (layer B.Cu) (net 8))
  (segment (start 165.972 80.772) (end 166 80.8) (width 0.5) (layer B.Cu) (net 9))
  (segment (start 154.54 73.66) (end 161.652 80.772) (width 0.5) (layer B.Cu) (net 9))
  (segment (start 161.652 80.772) (end 165.972 80.772) (width 0.5) (layer B.Cu) (net 9))
  (segment (start 179.730001 82.049999) (end 180.98 80.8) (width 0.5) (layer B.Cu) (net 9))
  (segment (start 178.976 82.804) (end 179.730001 82.049999) (width 0.5) (layer B.Cu) (net 9))
  (segment (start 176.010999 82.804) (end 178.976 82.804) (width 0.5) (layer B.Cu) (net 9))
  (segment (start 166 80.8) (end 174.006999 80.8) (width 0.5) (layer B.Cu) (net 9))
  (segment (start 174.006999 80.8) (end 176.010999 82.804) (width 0.5) (layer B.Cu) (net 9))
  (segment (start 32.611 80.8) (end 26 80.8) (width 0.5) (layer B.Cu) (net 9))
  (segment (start 38.461001 74.949999) (end 32.611 80.8) (width 0.5) (layer B.Cu) (net 9))
  (segment (start 154.54 73.66) (end 153.250001 74.949999) (width 0.5) (layer B.Cu) (net 9))
  (segment (start 153.250001 74.949999) (end 38.461001 74.949999) (width 0.5) (layer B.Cu) (net 9))
  (segment (start 163.1 84.76) (end 166 84.76) (width 0.5) (layer B.Cu) (net 10))
  (segment (start 154.54 76.2) (end 163.1 84.76) (width 0.5) (layer B.Cu) (net 10))
  (segment (start 179.730001 86.009999) (end 180.98 84.76) (width 0.5) (layer B.Cu) (net 10))
  (segment (start 178.999 86.741) (end 179.730001 86.009999) (width 0.5) (layer B.Cu) (net 10))
  (segment (start 176.022 86.741) (end 178.999 86.741) (width 0.5) (layer B.Cu) (net 10))
  (segment (start 173.99 84.709) (end 176.022 86.741) (width 0.5) (layer B.Cu) (net 10))
  (segment (start 166 84.76) (end 166.051 84.709) (width 0.5) (layer B.Cu) (net 10))
  (segment (start 166.051 84.709) (end 173.99 84.709) (width 0.5) (layer B.Cu) (net 10))
  (segment (start 32.715 84.76) (end 26 84.76) (width 0.5) (layer B.Cu) (net 10))
  (segment (start 39.985001 77.489999) (end 32.715 84.76) (width 0.5) (layer B.Cu) (net 10))
  (segment (start 154.54 76.2) (end 153.250001 77.489999) (width 0.5) (layer B.Cu) (net 10))
  (segment (start 153.250001 77.489999) (end 39.985001 77.489999) (width 0.5) (layer B.Cu) (net 10))
  (segment (start 158.84 72.88) (end 166 72.88) (width 0.5) (layer B.Cu) (net 11))
  (segment (start 154.54 68.58) (end 158.84 72.88) (width 0.5) (layer B.Cu) (net 11))
  (segment (start 179.730001 74.129999) (end 180.98 72.88) (width 0.5) (layer B.Cu) (net 11))
  (segment (start 179.057 74.803) (end 179.730001 74.129999) (width 0.5) (layer B.Cu) (net 11))
  (segment (start 175.895 74.803) (end 179.057 74.803) (width 0.5) (layer B.Cu) (net 11))
  (segment (start 173.99 72.898) (end 175.895 74.803) (width 0.5) (layer B.Cu) (net 11))
  (segment (start 166 72.88) (end 166.018 72.898) (width 0.5) (layer B.Cu) (net 11))
  (segment (start 166.018 72.898) (end 173.99 72.898) (width 0.5) (layer B.Cu) (net 11))
  (segment (start 32.403 72.88) (end 26 72.88) (width 0.5) (layer B.Cu) (net 11))
  (segment (start 35.452999 69.830001) (end 32.403 72.88) (width 0.5) (layer B.Cu) (net 11))
  (segment (start 154.54 68.58) (end 153.289999 69.830001) (width 0.5) (layer B.Cu) (net 11))
  (segment (start 153.289999 69.830001) (end 35.452999 69.830001) (width 0.5) (layer B.Cu) (net 11))
  (segment (start 157.42 68.92) (end 166 68.92) (width 0.5) (layer B.Cu) (net 12))
  (segment (start 154.54 66.04) (end 157.42 68.92) (width 0.5) (layer B.Cu) (net 12))
  (segment (start 179.730001 70.169999) (end 180.98 68.92) (width 0.5) (layer B.Cu) (net 12))
  (segment (start 179.034 70.866) (end 179.730001 70.169999) (width 0.5) (layer B.Cu) (net 12))
  (segment (start 175.895 70.866) (end 179.034 70.866) (width 0.5) (layer B.Cu) (net 12))
  (segment (start 166 68.92) (end 173.949 68.92) (width 0.5) (layer B.Cu) (net 12))
  (segment (start 173.949 68.92) (end 175.895 70.866) (width 0.5) (layer B.Cu) (net 12))
  (segment (start 32.299 68.92) (end 26 68.92) (width 0.5) (layer B.Cu) (net 12))
  (segment (start 33.928999 67.290001) (end 32.299 68.92) (width 0.5) (layer B.Cu) (net 12))
  (segment (start 154.54 66.04) (end 153.289999 67.290001) (width 0.5) (layer B.Cu) (net 12))
  (segment (start 153.289999 67.290001) (end 33.928999 67.290001) (width 0.5) (layer B.Cu) (net 12))
  (segment (start 162.38 88.72) (end 166 88.72) (width 0.5) (layer B.Cu) (net 13))
  (segment (start 154.54 78.74) (end 154.54 80.88) (width 0.5) (layer B.Cu) (net 13))
  (segment (start 154.54 80.88) (end 162.38 88.72) (width 0.5) (layer B.Cu) (net 13))
  (segment (start 179.730001 89.969999) (end 180.98 88.72) (width 0.5) (layer B.Cu) (net 13))
  (segment (start 179.022 90.678) (end 179.730001 89.969999) (width 0.5) (layer B.Cu) (net 13))
  (segment (start 176.022 90.678) (end 179.022 90.678) (width 0.5) (layer B.Cu) (net 13))
  (segment (start 173.99 88.646) (end 176.022 90.678) (width 0.5) (layer B.Cu) (net 13))
  (segment (start 166 88.72) (end 166.074 88.646) (width 0.5) (layer B.Cu) (net 13))
  (segment (start 166.074 88.646) (end 173.99 88.646) (width 0.5) (layer B.Cu) (net 13))
  (segment (start 32.692 88.72) (end 26 88.72) (width 0.5) (layer B.Cu) (net 13))
  (segment (start 41.402 80.01) (end 32.692 88.72) (width 0.5) (layer B.Cu) (net 13))
  (segment (start 154.54 78.74) (end 153.27 80.01) (width 0.5) (layer B.Cu) (net 13))
  (segment (start 153.27 80.01) (end 41.402 80.01) (width 0.5) (layer B.Cu) (net 13))
  (segment (start 165.96 60.96) (end 166 61) (width 0.5) (layer B.Cu) (net 14))
  (segment (start 154.54 60.96) (end 165.96 60.96) (width 0.5) (layer B.Cu) (net 14))
  (segment (start 179.730001 62.249999) (end 180.98 61) (width 0.5) (layer B.Cu) (net 14))
  (segment (start 178.988 62.992) (end 179.730001 62.249999) (width 0.5) (layer B.Cu) (net 14))
  (segment (start 176.022 62.992) (end 178.988 62.992) (width 0.5) (layer B.Cu) (net 14))
  (segment (start 173.99 60.96) (end 176.022 62.992) (width 0.5) (layer B.Cu) (net 14))
  (segment (start 166 61) (end 166.04 60.96) (width 0.5) (layer B.Cu) (net 14))
  (segment (start 166.04 60.96) (end 173.99 60.96) (width 0.5) (layer B.Cu) (net 14))
  (segment (start 32.298 61) (end 26 61) (width 0.5) (layer B.Cu) (net 14))
  (segment (start 33.508001 62.210001) (end 32.298 61) (width 0.5) (layer B.Cu) (net 14))
  (segment (start 154.54 60.96) (end 153.289999 62.210001) (width 0.5) (layer B.Cu) (net 14))
  (segment (start 153.289999 62.210001) (end 33.508001 62.210001) (width 0.5) (layer B.Cu) (net 14))
  (segment (start 156 64.96) (end 166 64.96) (width 0.5) (layer B.Cu) (net 15))
  (segment (start 154.54 63.5) (end 156 64.96) (width 0.5) (layer B.Cu) (net 15))
  (segment (start 179.730001 66.209999) (end 180.98 64.96) (width 0.5) (layer B.Cu) (net 15))
  (segment (start 179.011 66.929) (end 179.730001 66.209999) (width 0.5) (layer B.Cu) (net 15))
  (segment (start 176.022 66.929) (end 179.011 66.929) (width 0.5) (layer B.Cu) (net 15))
  (segment (start 173.99 64.897) (end 176.022 66.929) (width 0.5) (layer B.Cu) (net 15))
  (segment (start 166 64.96) (end 166.063 64.897) (width 0.5) (layer B.Cu) (net 15))
  (segment (start 166.063 64.897) (end 173.99 64.897) (width 0.5) (layer B.Cu) (net 15))
  (segment (start 32.385 64.96) (end 26 64.96) (width 0.5) (layer B.Cu) (net 15))
  (segment (start 32.594999 64.750001) (end 32.385 64.96) (width 0.5) (layer B.Cu) (net 15))
  (segment (start 154.54 63.5) (end 153.289999 64.750001) (width 0.5) (layer B.Cu) (net 15))
  (segment (start 153.289999 64.750001) (end 32.594999 64.750001) (width 0.5) (layer B.Cu) (net 15))
  (segment (start 160.9 88.72) (end 166 88.72) (width 0.5) (layer F.Cu) (net 16))
  (segment (start 160.84863 88.72) (end 160.9 88.72) (width 0.5) (layer F.Cu) (net 16))
  (segment (start 152 79.87137) (end 160.84863 88.72) (width 0.5) (layer F.Cu) (net 16))
  (segment (start 152 78.74) (end 152 79.87137) (width 0.5) (layer F.Cu) (net 16))
  (segment (start 175.252234 88.72) (end 166 88.72) (width 0.5) (layer F.Cu) (net 16))
  (segment (start 177.02 88.72) (end 175.252234 88.72) (width 0.5) (layer F.Cu) (net 16))
  (segment (start 32.692 88.72) (end 26 88.72) (width 0.5) (layer F.Cu) (net 16))
  (segment (start 152 78.74) (end 42.672 78.74) (width 0.5) (layer F.Cu) (net 16))
  (segment (start 42.672 78.74) (end 32.692 88.72) (width 0.5) (layer F.Cu) (net 16))
  (segment (start 160.9 84.76) (end 166 84.76) (width 0.5) (layer F.Cu) (net 17))
  (segment (start 158.709998 84.76) (end 160.9 84.76) (width 0.5) (layer F.Cu) (net 17))
  (segment (start 153.250001 79.300003) (end 158.709998 84.76) (width 0.5) (layer F.Cu) (net 17))
  (segment (start 153.250001 77.450001) (end 153.250001 79.300003) (width 0.5) (layer F.Cu) (net 17))
  (segment (start 152 76.2) (end 153.250001 77.450001) (width 0.5) (layer F.Cu) (net 17))
  (segment (start 177.02 84.76) (end 166 84.76) (width 0.5) (layer F.Cu) (net 17))
  (segment (start 32.715 84.76) (end 26 84.76) (width 0.5) (layer F.Cu) (net 17))
  (segment (start 152 76.2) (end 41.275 76.2) (width 0.5) (layer F.Cu) (net 17))
  (segment (start 41.275 76.2) (end 32.715 84.76) (width 0.5) (layer F.Cu) (net 17))
  (segment (start 161.953 80.8) (end 166 80.8) (width 0.5) (layer F.Cu) (net 18))
  (segment (start 156.063001 74.910001) (end 161.953 80.8) (width 0.5) (layer F.Cu) (net 18))
  (segment (start 152 73.66) (end 153.250001 74.910001) (width 0.5) (layer F.Cu) (net 18))
  (segment (start 153.250001 74.910001) (end 156.063001 74.910001) (width 0.5) (layer F.Cu) (net 18))
  (segment (start 177.02 80.8) (end 166 80.8) (width 0.5) (layer F.Cu) (net 18))
  (segment (start 32.611 80.8) (end 26 80.8) (width 0.5) (layer F.Cu) (net 18))
  (segment (start 152 73.66) (end 39.751 73.66) (width 0.5) (layer F.Cu) (net 18))
  (segment (start 39.751 73.66) (end 32.611 80.8) (width 0.5) (layer F.Cu) (net 18))
  (segment (start 160.9 76.84) (end 166 76.84) (width 0.5) (layer F.Cu) (net 19))
  (segment (start 160.279 76.84) (end 160.9 76.84) (width 0.5) (layer F.Cu) (net 19))
  (segment (start 155.809001 72.370001) (end 160.279 76.84) (width 0.5) (layer F.Cu) (net 19))
  (segment (start 153.250001 72.370001) (end 155.809001 72.370001) (width 0.5) (layer F.Cu) (net 19))
  (segment (start 152 71.12) (end 153.250001 72.370001) (width 0.5) (layer F.Cu) (net 19))
  (segment (start 175.252234 76.84) (end 166 76.84) (width 0.5) (layer F.Cu) (net 19))
  (segment (start 177.02 76.84) (end 175.252234 76.84) (width 0.5) (layer F.Cu) (net 19))
  (segment (start 32.507 76.84) (end 26 76.84) (width 0.5) (layer F.Cu) (net 19))
  (segment (start 152 71.12) (end 38.227 71.12) (width 0.5) (layer F.Cu) (net 19))
  (segment (start 38.227 71.12) (end 32.507 76.84) (width 0.5) (layer F.Cu) (net 19))
  (segment (start 160.9 72.88) (end 166 72.88) (width 0.5) (layer F.Cu) (net 20))
  (segment (start 160.891 72.88) (end 160.9 72.88) (width 0.5) (layer F.Cu) (net 20))
  (segment (start 157.861 69.85) (end 160.891 72.88) (width 0.5) (layer F.Cu) (net 20))
  (segment (start 153.416 69.85) (end 157.861 69.85) (width 0.5) (layer F.Cu) (net 20))
  (segment (start 152 68.58) (end 152.146 68.58) (width 0.5) (layer F.Cu) (net 20))
  (segment (start 152.146 68.58) (end 153.416 69.85) (width 0.5) (layer F.Cu) (net 20))
  (segment (start 175.252234 72.88) (end 166 72.88) (width 0.5) (layer F.Cu) (net 20))
  (segment (start 177.02 72.88) (end 175.252234 72.88) (width 0.5) (layer F.Cu) (net 20))
  (segment (start 32.403 72.88) (end 26 72.88) (width 0.5) (layer F.Cu) (net 20))
  (segment (start 152 68.58) (end 36.703 68.58) (width 0.5) (layer F.Cu) (net 20))
  (segment (start 36.703 68.58) (end 32.403 72.88) (width 0.5) (layer F.Cu) (net 20))
  (segment (start 160.9 68.92) (end 166 68.92) (width 0.5) (layer F.Cu) (net 21))
  (segment (start 159.29 67.31) (end 160.9 68.92) (width 0.5) (layer F.Cu) (net 21))
  (segment (start 153.306999 67.31) (end 159.29 67.31) (width 0.5) (layer F.Cu) (net 21))
  (segment (start 152 66.04) (end 152.036999 66.04) (width 0.5) (layer F.Cu) (net 21))
  (segment (start 152.036999 66.04) (end 153.306999 67.31) (width 0.5) (layer F.Cu) (net 21))
  (segment (start 175.252234 68.92) (end 166 68.92) (width 0.5) (layer F.Cu) (net 21))
  (segment (start 177.02 68.92) (end 175.252234 68.92) (width 0.5) (layer F.Cu) (net 21))
  (segment (start 31.1 68.92) (end 26 68.92) (width 0.5) (layer F.Cu) (net 21))
  (segment (start 32.299 68.92) (end 31.1 68.92) (width 0.5) (layer F.Cu) (net 21))
  (segment (start 35.052 66.167) (end 32.299 68.92) (width 0.5) (layer F.Cu) (net 21))
  (segment (start 150.74163 66.167) (end 35.052 66.167) (width 0.5) (layer F.Cu) (net 21))
  (segment (start 152 66.04) (end 150.86863 66.04) (width 0.5) (layer F.Cu) (net 21))
  (segment (start 150.86863 66.04) (end 150.74163 66.167) (width 0.5) (layer F.Cu) (net 21))
  (segment (start 160.9 64.96) (end 166 64.96) (width 0.5) (layer F.Cu) (net 22))
  (segment (start 160.71 64.77) (end 160.9 64.96) (width 0.5) (layer F.Cu) (net 22))
  (segment (start 152 63.5) (end 153.27 64.77) (width 0.5) (layer F.Cu) (net 22))
  (segment (start 153.27 64.77) (end 160.71 64.77) (width 0.5) (layer F.Cu) (net 22))
  (segment (start 177.02 64.96) (end 166 64.96) (width 0.5) (layer F.Cu) (net 22))
  (segment (start 32.449 64.96) (end 26 64.96) (width 0.5) (layer F.Cu) (net 22))
  (segment (start 152 63.5) (end 33.909 63.5) (width 0.5) (layer F.Cu) (net 22))
  (segment (start 33.909 63.5) (end 32.449 64.96) (width 0.5) (layer F.Cu) (net 22))
  (segment (start 160.9 61) (end 166 61) (width 0.5) (layer F.Cu) (net 23))
  (segment (start 159.609999 59.709999) (end 160.9 61) (width 0.5) (layer F.Cu) (net 23))
  (segment (start 153.250001 59.709999) (end 159.609999 59.709999) (width 0.5) (layer F.Cu) (net 23))
  (segment (start 152 60.96) (end 153.250001 59.709999) (width 0.5) (layer F.Cu) (net 23))
  (segment (start 166 61) (end 177.02 61) (width 0.5) (layer F.Cu) (net 23))
  (segment (start 26.04 60.96) (end 26 61) (width 0.5) (layer F.Cu) (net 23))
  (segment (start 152 60.96) (end 26.04 60.96) (width 0.5) (layer F.Cu) (net 23))
  (segment (start 160.9 57.04) (end 166 57.04) (width 0.5) (layer F.Cu) (net 24))
  (segment (start 160.809999 57.130001) (end 160.9 57.04) (width 0.5) (layer F.Cu) (net 24))
  (segment (start 153.289999 57.130001) (end 160.809999 57.130001) (width 0.5) (layer F.Cu) (net 24))
  (segment (start 152 58.42) (end 153.289999 57.130001) (width 0.5) (layer F.Cu) (net 24))
  (segment (start 171.1 57.04) (end 177.02 57.04) (width 0.5) (layer F.Cu) (net 24))
  (segment (start 166 57.04) (end 171.1 57.04) (width 0.5) (layer F.Cu) (net 24))
  (segment (start 32.402 57.04) (end 26 57.04) (width 0.5) (layer F.Cu) (net 24))
  (segment (start 152 58.42) (end 33.782 58.42) (width 0.5) (layer F.Cu) (net 24))
  (segment (start 33.782 58.42) (end 32.402 57.04) (width 0.5) (layer F.Cu) (net 24))
  (segment (start 160.9 53.08) (end 166 53.08) (width 0.5) (layer F.Cu) (net 25))
  (segment (start 159.389999 54.590001) (end 160.9 53.08) (width 0.5) (layer F.Cu) (net 25))
  (segment (start 153.289999 54.590001) (end 159.389999 54.590001) (width 0.5) (layer F.Cu) (net 25))
  (segment (start 152 55.88) (end 153.289999 54.590001) (width 0.5) (layer F.Cu) (net 25))
  (segment (start 166 53.08) (end 177.02 53.08) (width 0.5) (layer F.Cu) (net 25))
  (segment (start 32.379 53.08) (end 26 53.08) (width 0.5) (layer F.Cu) (net 25))
  (segment (start 152 55.88) (end 35.179 55.88) (width 0.5) (layer F.Cu) (net 25))
  (segment (start 35.179 55.88) (end 32.379 53.08) (width 0.5) (layer F.Cu) (net 25))
  (segment (start 160.9 49.12) (end 166 49.12) (width 0.5) (layer F.Cu) (net 26))
  (segment (start 157.969999 52.050001) (end 160.9 49.12) (width 0.5) (layer F.Cu) (net 26))
  (segment (start 153.289999 52.050001) (end 157.969999 52.050001) (width 0.5) (layer F.Cu) (net 26))
  (segment (start 152 53.34) (end 153.289999 52.050001) (width 0.5) (layer F.Cu) (net 26))
  (segment (start 166 49.12) (end 177.02 49.12) (width 0.5) (layer F.Cu) (net 26))
  (segment (start 32.356 49.12) (end 26 49.12) (width 0.5) (layer F.Cu) (net 26))
  (segment (start 152 53.34) (end 36.576 53.34) (width 0.5) (layer F.Cu) (net 26))
  (segment (start 36.576 53.34) (end 32.356 49.12) (width 0.5) (layer F.Cu) (net 26))
  (segment (start 160.9 45.16) (end 166 45.16) (width 0.5) (layer F.Cu) (net 27))
  (segment (start 156.549999 49.510001) (end 160.9 45.16) (width 0.5) (layer F.Cu) (net 27))
  (segment (start 153.289999 49.510001) (end 156.549999 49.510001) (width 0.5) (layer F.Cu) (net 27))
  (segment (start 152 50.8) (end 153.289999 49.510001) (width 0.5) (layer F.Cu) (net 27))
  (segment (start 166 45.16) (end 177.02 45.16) (width 0.5) (layer F.Cu) (net 27))
  (segment (start 32.46 45.16) (end 26 45.16) (width 0.5) (layer F.Cu) (net 27))
  (segment (start 152 50.8) (end 38.1 50.8) (width 0.5) (layer F.Cu) (net 27))
  (segment (start 38.1 50.8) (end 32.46 45.16) (width 0.5) (layer F.Cu) (net 27))
  (segment (start 160.9 41.2) (end 166 41.2) (width 0.5) (layer F.Cu) (net 28))
  (segment (start 155.129999 46.970001) (end 160.9 41.2) (width 0.5) (layer F.Cu) (net 28))
  (segment (start 153.289999 46.970001) (end 155.129999 46.970001) (width 0.5) (layer F.Cu) (net 28))
  (segment (start 152 48.26) (end 153.289999 46.970001) (width 0.5) (layer F.Cu) (net 28))
  (segment (start 176.945 41.275) (end 177.02 41.2) (width 0.5) (layer F.Cu) (net 28))
  (segment (start 166 41.2) (end 166.075 41.275) (width 0.5) (layer F.Cu) (net 28))
  (segment (start 166.075 41.275) (end 176.945 41.275) (width 0.5) (layer F.Cu) (net 28))
  (segment (start 32.31 41.2) (end 26 41.2) (width 0.5) (layer F.Cu) (net 28))
  (segment (start 152 48.26) (end 39.37 48.26) (width 0.5) (layer F.Cu) (net 28))
  (segment (start 39.37 48.26) (end 32.31 41.2) (width 0.5) (layer F.Cu) (net 28))
  (segment (start 160.9 37.24) (end 166 37.24) (width 0.5) (layer F.Cu) (net 29))
  (segment (start 158.629998 37.24) (end 160.9 37.24) (width 0.5) (layer F.Cu) (net 29))
  (segment (start 153.289999 42.579999) (end 158.629998 37.24) (width 0.5) (layer F.Cu) (net 29))
  (segment (start 153.289999 44.430001) (end 153.289999 42.579999) (width 0.5) (layer F.Cu) (net 29))
  (segment (start 152 45.72) (end 153.289999 44.430001) (width 0.5) (layer F.Cu) (net 29))
  (segment (start 171.1 37.24) (end 177.02 37.24) (width 0.5) (layer F.Cu) (net 29))
  (segment (start 166 37.24) (end 171.1 37.24) (width 0.5) (layer F.Cu) (net 29))
  (segment (start 32.16 37.24) (end 26 37.24) (width 0.5) (layer F.Cu) (net 29))
  (segment (start 152 45.72) (end 40.64 45.72) (width 0.5) (layer F.Cu) (net 29))
  (segment (start 40.64 45.72) (end 32.16 37.24) (width 0.5) (layer F.Cu) (net 29))
  (segment (start 160.9 33.28) (end 166 33.28) (width 0.5) (layer F.Cu) (net 30))
  (segment (start 160.76863 33.28) (end 160.9 33.28) (width 0.5) (layer F.Cu) (net 30))
  (segment (start 152 42.04863) (end 160.76863 33.28) (width 0.5) (layer F.Cu) (net 30))
  (segment (start 152 43.18) (end 152 42.04863) (width 0.5) (layer F.Cu) (net 30))
  (segment (start 171.1 33.28) (end 177.02 33.28) (width 0.5) (layer F.Cu) (net 30))
  (segment (start 166 33.28) (end 171.1 33.28) (width 0.5) (layer F.Cu) (net 30))
  (segment (start 32.264 33.28) (end 26 33.28) (width 0.5) (layer F.Cu) (net 30))
  (segment (start 152 43.18) (end 42.164 43.18) (width 0.5) (layer F.Cu) (net 30))
  (segment (start 42.164 43.18) (end 32.264 33.28) (width 0.5) (layer F.Cu) (net 30))

)
